1 999999 525
1 10 20
100 200 125
201 210 89
900 1000 174
25 35 112
122 273 128
19 10 21
123 456 144
956 1000 143
1010 2750 209
21342 867 279
900000 999999 507
373 1 144
34567 789012 509
12345 67891 340
798 195039 383
1747 143316 375
3895 145891 375
91 455190 449
295 425779 449
4280 79415 351
1142 222805 386
665 261393 443
288 177191 383
2758 219889 386
3496 395240 443
3873 495549 449
1855 273055 443
1335 175723 383
4229 231207 443
330 274514 443
966 210983 383
4881 399439 443
1460 284014 443
385 318001 443
2358 59136 340
4080 289244 443
3069 140222 354
1378 85803 351
1474 426438 449
4958 404161 443
3128 427440 449
3403 32424 308
1220 50561 324
919 79162 351
2793 101832 351
3641 127069 354
2756 459119 449
2080 257379 443
3770 216896 386
1158 281119 443
3741 296987 443
152 319304 443
4784 402918 443
79 362893 443
750 161412 383
3811 313786 443
135 7265 262
457 468267 449
71 132426 354
428 293985 443
3766 137255 354
4739 319846 443
4506 472751 449
434 295394 443
1067 493819 449
2371 221785 386
4150 383527 443
105 445077 449
1657 311649 443
4828 282677 443
1992 268267 443
3696 445946 449
1789 405915 443
660 437825 449
2122 279646 443
944 42699 324
741 418867 449
1768 255416 443
4866 183979 383
4617 252870 443
2114 439883 449
4618 294737 443
4164 380091 443
4917 404401 443
4745 444300 449
3137 61959 340
4425 465984 449
1328 421240 449
398 444043 449
3366 272110 443
4350 255479 443
3644 407532 443
4185 352501 443
2332 69733 340
454 170605 383
2832 19722 279
4951 277507 443
1470 176074 383
3776 154077 375
1887 418380 449
1235 464426 449
4736 11145 268
226 162798 383
3395 340210 443
611 141940 354
4714 63708 340
3861 160655 383
154 284073 443
2812 499522 449
711 300491 443
4743 139653 354
1543 391827 443
4878 179391 383
4992 210493 383
4053 450181 449
2785 295614 443
4921 393040 443
2909 321721 443
1455 112793 354
2509 412647 449
2710 235485 443
65 128013 354
2850 172991 383
726 68461 340
4983 64007 340
539 426365 449
4441 160996 383
1745 20767 279
745 66190 340
1107 390176 443
3500 315966 443
3932 406001 443
812 328756 443
2545 289606 443
1400 116292 354
127 259559 443
1842 430771 449
2405 432123 449
2846 362568 443
4447 435363 449
4693 221378 386
1004 348872 443
3445 380483 443
3545 457740 449
3936 149573 375
4071 465754 449
1128 281619 443
131 223664 386
3904 131195 354
1301 30487 308
200 492010 449
555 117169 354
4984 410858 449
2361 433853 449
644 496542 449
938 78205 351
2640 388645 443
2075 202509 383
2060 169263 383
1391 134675 354
1558 77929 351
1272 188631 383
234 236366 443
47 10737 262
1125 196199 383
2548 131035 354
4002 149805 375
2810 284599 443
746 451929 449
1878 88702 351
813 376907 443
2183 68585 340
2762 64793 340
1033 150127 375
3738 352041 443
1687 139802 354
3254 455321 449
2072 371466 443
1053 230956 443
4091 41880 324
1101 36648 324
4120 235272 443
1622 392588 443
856 44616 324
82 463468 449
1878 52449 324
3539 439194 449
504 435050 449
148 284646 443
737 478170 449
3951 300499 443
3338 230133 386
801 448873 449
4735 136835 354
538 5210 238
1929 269368 443
3451 469277 449
4731 451771 449
103 333043 443
1222 400495 443
1122 437537 449
2572 65903 340
1345 341508 443
1144 89757 351
2249 485215 449
4653 420044 449
3831 134068 354
682 395510 443
1881 212578 383
2418 212741 383
3307 241356 443
1138 486293 449
1833 7674 262
2143 39757 324
